SDS 192 Fall ’23 - SDS192 Lab 6
…
11837 11858

Notice that there are still more full names than covered_recipient_npis, which means that certain doctors have multiple names in this dataset. Below I’ve written some code to calculate the number unique full names listed for each covered_recipient_npi and filter to the rows with more than one name. Can you identify some reasons why we might have multiple names listed for this same medical practitioner in this data frame?

open_payments_cleaned |>
  group_by(covered_recipient_npi) |>
  mutate(num_names = length(unique(covered_recipient_full_name))) |>
  ungroup() |>
  filter(num_names > 1) |>
  select(covered_recipient_npi, covered_recipient_full_name) |>
  distinct() |>
  arrange(desc(covered_recipient_npi))

# A tibble: 292 × 2
   covered_recipient_npi covered_recipient_full_name
                   <dbl> <chr>                      
 1            1992991657 LANA SCHUMACHER            
 2            1992991657 LANA BEAL                  
 3            1992932453 JESSICA ALLEGRETTI         
 4            1992932453 JESSICA RAVIKOFF           
 5            1992712178 PASI ANTERO JANNE          
 6            1992712178 PASI JANNE                 
 7            1992187132 FAIZ BAYO-AWOYEMI          
 8            1992187132 FAIZ BAYO AWOYEMI          
 9            1982680740 DONALD MARKS               
10            1982680740 DON MARKS                  
# ℹ 282 more rows
…
df

# A tibble: 39 × 4
   covered_recipient_npi applicable_manufacturer…¹ form_of_payment_or_t…²  total
                   <dbl> <chr>                     <chr>                   <dbl>
 1            1194763482 Vertex Pharmaceuticals I… Cash or cash equivale… 1.88e7
 2            1720096738 Vertex Pharmaceuticals I… Cash or cash equivale… 1.88e7
 3            1073561973 Smith+Nephew, Inc.        Cash or cash equivale… 2.11e6
 4            1073561973 Smith+Nephew, Inc.        In-kind items and ser… 1.07e2
 5            1073561973 Synthes GmbH              Cash or cash equivale… 2.5 e2
 6            1699732065 DePuy Synthes Products, … Cash or cash equivale… 1.87e6
 7            1952351488 E.R. Squibb & Sons, L.L.… Stock                  7.91e5
 8            1952351488 GlaxoSmithKline, LLC.     Cash or cash equivale… 1.81e5
 9            1194860205 Henry Schein, Inc.        In-kind items and ser… 2.88e2
10            1194860205 Peter Brasseler Holdings… Cash or cash equivale… 9.71e5
# ℹ 29 more rows
# ℹ abbreviated names:
#   ¹​applicable_manufacturer_or_applicable_gpo_making_payment_name,
#   ²​form_of_payment_or_transfer_of_value
…
