SDS 192 - Lec 17: In-class Exercise: Join Two Tables
…
ct_school_learning_model <-
  read_csv("data/ct_school_learning_model.csv")

Step 1: Inner Join

Join ct_school_attendance by ct_school_learning_model with an inner join.

select() the district code, the district name, the 2020-2021 attendance rate, and the percent of students that are fully remote in the first week of the 2020-2021 school year.

# Write your code below
ct_school_attendance |>
inner_join( ct_school_learning_model, by= c("reportingdistrictcode"="district_code") )

# A tibble: 197 × 24
   reportingdistrictcode reportingdistrictname       category studentgroup
   <chr>                 <chr>                       <chr>    <chr>       
 1 0010011               Andover School District     <NA>     All Students
 2 0020011               Ansonia School District     <NA>     All Students
 3 0030011               Ashford School District     <NA>     All Students
 4 0040011               Avon School District        <NA>     All Students
 5 0050011               Barkhamsted School District <NA>     All Students
 6 0070011               Berlin School District      <NA>     All Students
 7 0080011               Bethany School District     <NA>     All Students
 8 0090011               Bethel School District      <NA>     All Students
 9 0110011               Bloomfield School District  <NA>     All Students
10 0120011               Bolton School District      <NA>     All Students
# ℹ 187 more rows
# ℹ 20 more variables: studentcount_current <dbl>, attrate_ytd <dbl>,
#   studentcount_202021 <dbl>, attrate_202021 <dbl>, studentcount_201920 <dbl>,
#   attrate_201920 <dbl>, reportingperiod <dttm>, date_update <dttm>,
#   district_name <chr>, school_start_date <dttm>, grades_inperson_model <chr>,
#   grades_hybrid_model <chr>, grades_remote_model <chr>,
#   percent_students_fully_remote <chr>, total_number_students <chr>, …

Question: How many rows are in the resulting table?

Answer: 197

Step 2a: Left Join

Copy your code above into the chunk below, and change it to a left join.

# Paste the code below and adjust it
ct_school_attendance |>
left_join( ct_school_learning_model, by= c("reportingdistrictcode"="district_code") )

# A tibble: 200 × 24
   reportingdistrictcode reportingdistrictname       category studentgroup
   <chr>                 <chr>                       <chr>    <chr>       
 1 0010011               Andover School District     <NA>     All Students
 2 0020011               Ansonia School District     <NA>     All Students
 3 0030011               Ashford School District     <NA>     All Students
 4 0040011               Avon School District        <NA>     All Students
 5 0050011               Barkhamsted School District <NA>     All Students
 6 0070011               Berlin School District      <NA>     All Students
 7 0080011               Bethany School District     <NA>     All Students
 8 0090011               Bethel School District      <NA>     All Students
 9 0110011               Bloomfield School District  <NA>     All Students
10 0120011               Bolton School District      <NA>     All Students
# ℹ 190 more rows
# ℹ 20 more variables: studentcount_current <dbl>, attrate_ytd <dbl>,
#   studentcount_202021 <dbl>, attrate_202021 <dbl>, studentcount_201920 <dbl>,
#   attrate_201920 <dbl>, reportingperiod <dttm>, date_update <dttm>,
#   district_name <chr>, school_start_date <dttm>, grades_inperson_model <chr>,
#   grades_hybrid_model <chr>, grades_remote_model <chr>,
#   percent_students_fully_remote <chr>, total_number_students <chr>, …
…
Question: How many rows are in the resulting table?

Answer: 5

Step 3b

Copy the code above into the chunk below, and filter to the rows where reportingdistrictname is NA.

# Paste the code below and adjust it
ct_school_attendance |>
right_join( ct_school_learning_model, by= c("reportingdistrictcode"="district_code") ) |>
  filter(is.na(reportingdistrictname))

# A tibble: 88 × 24
   reportingdistrictcode reportingdistrictname category studentgroup
   <chr>                 <chr>                 <chr>    <chr>       
 1 0046821               <NA>                  <NA>     <NA>        
 2 0046921               <NA>                  <NA>     <NA>        
 3 0100161               <NA>                  <NA>     <NA>        
 4 0170561               <NA>                  <NA>     <NA>        
 5 0170821               <NA>                  <NA>     <NA>        
 6 0190161               <NA>                  <NA>     <NA>        
 7 0230121               <NA>                  <NA>     <NA>        
 8 0250161               <NA>                  <NA>     <NA>        
 9 0330161               <NA>                  <NA>     <NA>        
10 0360161               <NA>                  <NA>     <NA>        
# ℹ 78 more rows
# ℹ 20 more variables: studentcount_current <dbl>, attrate_ytd <dbl>,
#   studentcount_202021 <dbl>, attrate_202021 <dbl>, studentcount_201920 <dbl>,
#   attrate_201920 <dbl>, reportingperiod <dttm>, date_update <dttm>,
#   district_name <chr>, school_start_date <dttm>, grades_inperson_model <chr>,
#   grades_hybrid_model <chr>, grades_remote_model <chr>,
#   percent_students_fully_remote <chr>, total_number_students <chr>, …
…
