iteration – SDS 192
…
Warning: Returning more (or less) than 1 row per `summarise()` group was deprecated in
dplyr 1.1.0.
ℹ Please use `reframe()` instead.
ℹ When switching from `summarise()` to `reframe()`, remember that `reframe()`
  always returns an ungrouped data frame and adjust accordingly.

`summarise()` has grouped output by 'Species'. You can override using the
`.groups` argument.

# A tibble: 150 × 5
# Groups:   Species [3]
   Species Sepal.Length Sepal.Width Petal.Length Petal.Width
   <fct>          <dbl>       <dbl>        <dbl>       <dbl>
 1 setosa             5           4            1           0
 2 setosa             5           3            1           0
 3 setosa             5           3            1           0
 4 setosa             5           3            2           0
 5 setosa             5           4            1           0
 6 setosa             5           4            2           0
 7 setosa             5           3            1           0
 8 setosa             5           3            2           0
 9 setosa             4           3            1           0
10 setosa             5           3            2           0
# ℹ 140 more rows

Rounding without across()

and the tidyverse

iris %>%
  group_by(Species) %>%
  mutate(Sepal.Length = round(Sepal.Length),
            Sepal.Width = round(Sepal.Width),
            Petal.Length = round(Petal.Length),
            Petal.Width = round(Petal.Width))

# A tibble: 150 × 5
# Groups:   Species [3]
   Sepal.Length Sepal.Width Petal.Length Petal.Width Species
          <dbl>       <dbl>        <dbl>       <dbl> <fct>  
 1            5           4            1           0 setosa 
 2            5           3            1           0 setosa 
 3            5           3            1           0 setosa 
 4            5           3            2           0 setosa 
 5            5           4            1           0 setosa 
 6            5           4            2           0 setosa 
 7            5           3            1           0 setosa 
 8            5           3            2           0 setosa 
 9            4           3            1           0 setosa 
10            5           3            2           0 setosa 
# ℹ 140 more rows
…
iris <- round(iris[1:4])

Rounding example 5

# This removes the previous iris df that we made. 
rm(iris)

iris %>%
  group_by(Species) %>%
  reframe(across(
    .cols = starts_with("Sepal"), 
    .fns = ~ round(. , digits = 2)))

# A tibble: 150 × 3
   Species Sepal.Length Sepal.Width
   <fct>          <dbl>       <dbl>
 1 setosa           5.1         3.5
 2 setosa           4.9         3  
 3 setosa           4.7         3.2
 4 setosa           4.6         3.1
 5 setosa           5           3.6
 6 setosa           5.4         3.9
 7 setosa           4.6         3.4
 8 setosa           5           3.4
 9 setosa           4.4         2.9
10 setosa           4.9         3.1
# ℹ 140 more rows
…
