SDS 192 - Write Functions
…
  }
  else{
    stop("Name not found")
  }
}

Bonus!

The count_name function should return one row per year that matches (and generate an error message if there are no matches). Run the function once with the argument Ezekiel and once with Ezze.

# Paste the code from Exercise 1 below and adjust it
count_name(data=babynames, nombre = "Ezekiel")

# A tibble: 141 × 3
   name     year     n
   <chr>   <dbl> <int>
 1 Ezekiel  1880    16
 2 Ezekiel  1881    22
 3 Ezekiel  1882    11
 4 Ezekiel  1883    14
 5 Ezekiel  1884    13
 6 Ezekiel  1885    10
 7 Ezekiel  1886    17
 8 Ezekiel  1887    11
 9 Ezekiel  1888    16
10 Ezekiel  1889    14
# ℹ 131 more rows
…
