MTH_190 - What did we do in Intro to Data Science
…
And clean it up for analysis

wf_wiki_frames <- wf_wiki_frames|>
  rename(
    "Warframe Name" = warframe_name, "Release Date" = release_date_yyyy_mm_dd, "Update Version" = update_version
    )
wf_wiki_frames

# A tibble: 89 × 4
   `Warframe Name` sex    `Release Date` `Update Version`
   <chr>           <chr>  <date>         <chr>           
 1 Ash Prime       Male   2015-07-07     16.11           
 2 Vauban Prime    Male   2016-05-17     18.12           
 3 Rhino Prime     Male   2014-03-05     12.4            
 4 Zephyr          Female 2014-02-05     12.0            
 5 Gauss           Male   2019-08-29     25.7            
 6 Limbo           Male   2014-10-24     15.0            
 7 Chroma Prime    Male   2018-09-25     23.9            
 8 Atlas           Male   2015-10-01     17.5            
 9 Ember Prime     Female 2013-11-20     11.0            
10 Hydroid         Male   2014-04-09     13.0            
# … with 79 more rows
…
